SA SK SQ SJ S10
HA HK HQ HJ H10
SA SK SQ SJ S10
HA DA CA DA D2
DK HK SK D4 H4
C4 C5 C7 C10 CQ
HA D2 D3 D4 S5
C8 S8 H8 D3 D10
C7 C6 C2 H7 H6
S10 D10 H5 D5 CQ
HK SJ HJ S2 S3
HA SJ S5 H5 D7
HA HK HQ HJ H10
HA HK HQ HJ H10
HA HK HQ HJ H10
HA HK HQ HJ H10
CK CQ C9 C10 CJ
S8 SQ S9 S10 SJ
HA DA CA DA D2
HA DA CA D3 D2
H3 H4 H5 H6 H7
HA H2 S3 H4 S5
SA S2 H3 S4 H5
SA HA DA D3 H3
SA HA D2 S2 HJ
SK HK C6 S6 D4
SA HA D10 D9 D8
CA DA D6 S7 HJ
CA DQ S10 H8 C4
HA SQ C8 H4 D10
SA SQ SJ S9 S8
CA CQ CJ C9 C8
CA CQ CJ C9 C8
CA CQ CJ C9 C8
CA CQ CJ C9 C8
CA CQ CJ C9 C8